template,class,dcterms:title,dcterms:description,dcterms:mediator,dcterms:date
Line,dctype:Collection,Ligne 1,La description de la ligne 1,"Geel, Catherine (historienne)",2018
Line,dctype:Collection,Ligne 2,La description de la ligne 2,"Mauderli, Laurence (historienne)",2019
Line,dctype:Collection,Ligne 3,La description de la ligne 3,Chercheur 1,2020
Line,dctype:Collection,Ligne 4,La description de la ligne 4,Chercheur 2,2021
Line,dctype:Collection,Ligne 5,La description de la ligne 5,Chercheur 3,2022
Line,dctype:Collection,Ligne 6,La description de la ligne 6,Chercheur 4,2023
Line,dctype:Collection,Ligne 7,La description de la ligne 7,Chercheur 5,2024
Line,dctype:Collection,Ligne 8,La description de la ligne 8,Chercheur 6,2025
Line,dctype:Collection,Ligne 9,La description de la ligne 9,Chercheur 7,2026
Line,dctype:Collection,Ligne 10,La description de la ligne 10,Chercheur 8,2027
Line,dctype:Collection,Ligne 11,La description de la ligne 11,Chercheur 9,2028
Line,dctype:Collection,Ligne 12,La description de la ligne 12,Chercheur 10,2029
Line,dctype:Collection,Ligne 13,La description de la ligne 13,Chercheur 11,2030
Line,dctype:Collection,Ligne 14,La description de la ligne 14,Chercheur 12,2031
