template,class,dcterms:mediator,dcterms:creator,dcterms:type,dcterms:title,dcterms:created
Resource,dctype:StillImage,"Geel, Catherine (historienne)","Depardon, Raymond (photographe)",écrits| photographie,Une ressource 15,2000
Resource,dctype:StillImage,"Mauderli, Laurence (historienne)",Auteur 1| Auteur 3,dessin,Une ressource 16,2001
Resource,dctype:StillImage,Une chercheuse 1,Une autrice 1,plans| schémas,Une ressource 17,2010
Resource,dctype:StillImage,Un autre chercheu 2,Un autre auteur 2,carte,Ressource 18,2003
Resource,dctype:StillImage,Chercheur 3,Auteur 4,publicité,La ressource 19,2004
Resource,dctype:StillImage,Chercheur 4,Auteur 5,presse| photographie,Une ressource 20,2010
Resource,dctype:StillImage,Chercheur 5,Auteur 6| Auteur 7| Auteur 8| Auteur 9,écrits,Une ressource 21,2006
Resource,dctype:StillImage,Chercheur 6,L’Auteur 7,photographie,Une ressource 22,2007
Resource,dctype:StillImage,Chercheur 7,Auteur 8,dessin| photographie,Une ressource 23,2019
Resource,dctype:StillImage,Chercheur 8,Auteur 9,plans,Une ressource 24,2019
Resource,dctype:StillImage,Chercheur 9,Auteur 10,carte,ressource 25,2019
Resource,dctype:StillImage,Chercheur 10| Chercheur 9,Auteur 11,publicité,Une ressource 26,2019
Resource,dctype:StillImage,Chercheur 11,Auteur 12,presse,Une ressource 27,2019
Resource,dctype:StillImage,Chercheur 12,Auteur 13,écrits,Une ressource 28,2006
Resource,dctype:StillImage,Chercheur 13,Auteur 14,écrits,Une ressource 29,2007
Resource,dctype:StillImage,Chercheur 14,Auteur 15,carte,Une ressource 30,2008
Resource,dctype:StillImage,Chercheur 15,Auteur 16,écrits,Une ressource 31,2009
Resource,dctype:StillImage,Chercheur 16,Auteur 17,dessin| photographie,Une ressource 32,2010
Resource,dctype:StillImage,Chercheur 17,Auteur 18,publicité,Une ressource 33,2011
Resource,dctype:StillImage,Chercheur 18,Auteur 19,écrits,Une ressource 34,2012
Resource,dctype:StillImage,Chercheur 19,Auteur 20,publicité,Une ressource 35,2013
Resource,dctype:StillImage,Chercheur 20,Auteur 21,écrits,Une ressource 36,2014
Resource,dctype:StillImage,Chercheur 21,Auteur 22,écrits,Une ressource 37,2015
Resource,dctype:StillImage,Chercheur 22,Auteur 23,photographie| écrits,Une ressource 38,2016
