type,titre,Ethymologie,"Définition CNRTL","Définition <Grands penseurs>","Définition <Penseurs contemporains>","Définition <Designers>","Définition <Organisations>",Réference(s),relation,association
économie,Economie,"OIKOS NOMOS (grec  ο ι ̓ κ ο ν ο μ ι ́ α) : organisation/gestion de la maison","Art de gérer - Art de gérer sagement une maison, un ménage, d'administrer un bien. - Ensemble de ce qui concerne la production, la répartition et la consommation des richesses et de l'activité que les hommes vivant en société déploient à cet effet.- Système général dans lequel vit une collectivité, une nation.","SHUMPETER L’économie est gouvernée par un phénomène particulier : la « destruction créatrice ». C’est « la donnée fondamentale du capitalisme et toute entreprise doit, bon gré mal gré, s’y adapter ». "," RAJ PATEL (professeur d'économie politique) ""L'économie n'est qu'une façon de penser la relation entre les humains et le tissu du  vivant""/ALAIN DENAULT ""Science de la connaissance des relations bonnes* ou observation des relations qui se veulent bonnes*"" (*Bonne au sens de Spinoza, qui permet de durer, de tendre vers une forme de perfection)",,,https://www.economie.gouv.fr/facileco/dico-eco,,
économie,"Economie de la fonctionnalité",,,,,,"MINISTERE DE LA TRANSITION ECOLOGIQUE "" L’économie de la fonctionnalité peut se définir comme un système privilégiant l’usage plutôt que la vente d’un produit. Elle vise à développer des solutions intégrées de biens et services dans une perspective de développement durable. Ainsi, l’échange économique ne repose plus sur le transfert de propriété de biens, qui restent la propriété du producteur tout au long de son cycle de vie, mais sur le consentement des usagers à payer une valeur d’usage. """,,13,
économie,"Economie circulaire",,,,,,"ADME (Agence de la transition économique) ""L’économie circulaire vise à changer de paradigme par rapport à l’économie dite linéaire, en limitant le gaspillage des ressources et l’impact environnemental, et en augmentant l’efficacité à tous les stades de l’économie des produits.""",,13,
économie,"Economie sociale et solidaire",,,,"PASCAL GLEMAIN (Maître de Conférences en Sciences de Gestion et Economie Sociale & Solidaire à l'Université de Rennes 2) ""L'ESS est une économie à épaisseur sociale et à vocation territoriale.""",,"ECONOMIE.GOUV ""L'économie sociale solidaire désigne un ensemble d'entreprises organisées sous forme de coopératives, mutuelles, associations, ou fondations, dont le fonctionnement interne et les activités sont fondés sur un principe de solidarité et d'utilité sociale. Ces entreprises adoptent des modes de gestion démocratiques et participatifs. Elles encadrent strictement l'utilisation des bénéfices qu'elles réalisent : le profit individuel est proscrit et les résultats sont réinvestis.""",,2,
économie,"Economie collaborative",,,,,,"VIE PUBLIQUE ""L’économie collaborative recouvre, à la fois, des plateformes d’échanges de biens et de services entre particuliers sans recherche de profit et des plateformes d’offres commerciales. L’économie collaborative tend à faire évoluer le modèle socio-économique et présente de nouveaux défis pour les pouvoirs publics. """,,2,
économie,Monnaie,,"Pièce d'alliage ou de métal de titre, forme et poids caractéristiques, frappée sur l'avers et le revers d'une empreinte particulière, et garantie par l'autorité d'émission comme moyen légal d'échange, de paiement et d'épargne.  - Unité monétaire particulière ayant cours dans un pays donné ou dans une communauté économique.",,,,,,8,
économie,Richesse,https://www.cnrtl.fr/etymologie/richesse,"Abondance de biens, de moyens, de revenus; état, condition d'une personne qui possède des biens très importants, qui a beaucoup de ressources, de revenus. Caractère de ce qui est de grand prix, de grande valeur, de ce qui est précieux.",,,,,,,
économie,Valeur,https://www.cnrtl.fr/etymologie/valeur,"Caractère mesurable prêté à un objet en fonction de sa capacité à être échangé ou vendu; prix correspondant à l'estimation faite d'un objet._  - Estimé à un prix élevé, qui vaut cher. - Évaluation d'une chose en fonction de son utilité sociale, de la quantité de travail nécessaire à sa production, du rapport de l'offre et de la demande.",,,,,,8,
économie,Bénéfice(s),,"Avantage que procure une personne ou une chose. - Désagrément  - Gain réalisé par une personne ou une collectivité.",,,,,,8,
économie,Crédit,,"Confiance qu'inspire quelqu'un.- Acte par lequel une personne, généralement un banquier, met à la disposition d'une autre personne, une somme d'argent ou un bien qui devra être restitué, ou son équivalent.",,,,,,8,
économie,"Bien (matériel)",,"Toute chose dont la possession, la jouissance (en fait ou en esprit) est considérée par l'Homme comme utile à la conservation, à l'expansion de son être.Toute chose d'utilité pratique et de valeur financière.Ce qui est susceptible d'une appropriation légale. ",,,,,,8,
écologie,Ecologie,"OIKOS LOGOS (grec  ο ι ̃ κ ο ς  λ ο ́ γ ο ς ) : ensemble de la grande maison Terre - Discours/théorie de la maison","Science qui étudie les relations entre les êtres vivants (humains, animaux, végétaux) et le milieu organique ou inorganique dans lequel ils vivent.  Étude des conditions d'existence et des comportements des êtres vivants en fonction de l'équilibre biologique et de la survie des espèces. Études des relations réciproques entre l'homme et son environnement moral, social, économique.",,,,,,,
écologie,Résilience,," Résistance d'un matériau au choc. Force morale; qualité de quelqu'un qui ne se décourage pas, ne se laisse pas abattre.","Capacité de reproduction d'une espèce animale inemployée en raison d'une ambiance hostile, mais susceptible d'une expansion soudaine si cette ambiance s'améliore.`` (Husson 1970).",,,,,,
ville,Ville,,"Agglomération relativement importante dont les habitants ont des activités professionnelles diversifiées, notamment dans le secteur tertiaire.",,,,,,,
ville,Urbanisme,,"Ensemble des sciences, des techniques et des arts relatifs à l'organisation et à l'aménagement des espaces urbains, en vue d'assurer le bien-être de l'homme et d'améliorer les rapports sociaux en préservant l'environnement. Ensemble des règlements permettant aux pouvoirs publics de contrôler l'utilisation du sol en milieu urbain.",,,,,,,
ville,"Urbanisme circulaire",,,,,,,,4,13
ville,Tiers-lieux,,,,,,,,5,
vie,"Bien (moral)",,"Ce qui favorise l'équilibre, l'épanouissement d'un individu, d'une collectivité ou d'une entreprise humaine (à tous points de vue). - Ce qui correspond aux aspirations essentielles de la nature humaine; ensemble de facteurs propres à amener et maintenir chaque être au summum de son accomplissement vital − notamment par la voie du perfectionnement spirituel; spéc., Dieu même en tant qu'Être suprême, parfait, éternel, source de tout ce qui est favorable à la progression des créatures et but de leur évolution.  -  Toute chose dont la possession, la jouissance (en fait ou en esprit) est considérée par l'Homme comme utile à la conservation, à l'expansion de son être.",,,,,,9,
vie,Temps,,"Milieu indéfini et homogène dans lequel se situent les êtres et les choses et qui est caractérisé par sa double nature, à la fois continuité et succession. - Durée indéterminée et continue.",,,,,,7,
